…
  response_tbl <- response_list$response$body$items$item
  
  return(response_tbl)
}

precinct_raw <- tibble(page = 1:3) |> 
  mutate(data = map(page, get_precinct)) 

precinct_tbl <- precinct_raw |> 
  unnest(data)

precinct_tbl  |> 
  select(sgId, sdName, sggName, sggJungsu)

#> # A tibble: 30 × 4
#>    sgId     sdName     sggName      sggJungsu
#>    <chr>    <chr>      <chr>        <chr>    
#>  1 20200415 서울특별시 종로구       1        
#>  2 20200415 서울특별시 중구성동구갑 1        
#>  3 20200415 서울특별시 중구성동구을 1        
#>  4 20200415 서울특별시 용산구       1        
#>  5 20200415 서울특별시 광진구갑     1        
#>  6 20200415 서울특별시 광진구을     1        
#>  7 20200415 서울특별시 동대문구갑   1        
#>  8 20200415 서울특별시 동대문구을   1        
#>  9 20200415 서울특별시 중랑구갑     1        
#> 10 20200415 서울특별시 중랑구을     1        
#> # ℹ 20 more rows
#> # ℹ Use `print(n = ...)` to see more rows
```

### 선거구 당선인

```{r}
#| eval: false
winners_raw <- precinct_tbl |> 
  mutate(winner = map2(sdName, sggName, get_winner))

winners_tbl <-winners_raw |> 
  select(winner) |> 
  unnest(winner)

winners_tbl

#> # A tibble: 253 × 6
#>    sgId     sggName      sdName     giho  jdName       name  
#>    <chr>    <chr>        <chr>      <chr> <chr>        <chr> 
#>  1 20200415 종로구       서울특별시 1     더불어민주당 이낙연
#>  2 20200415 중구성동구갑 서울특별시 1     더불어민주당 홍익표
#>  3 20200415 중구성동구을 서울특별시 1     더불어민주당 박성준
#>  4 20200415 용산구       서울특별시 2     미래통합당   권영세
#>  5 20200415 광진구갑     서울특별시 1     더불어민주당 전혜숙
#>  6 20200415 광진구을     서울특별시 1     더불어민주당 고민정
#>  7 20200415 동대문구갑   서울특별시 1     더불어민주당 안규백
#>  8 20200415 동대문구을   서울특별시 1     더불어민주당 장경태
#>  9 20200415 중랑구갑     서울특별시 1     더불어민주당 서영교
#> 10 20200415 중랑구을     서울특별시 1     더불어민주당 박홍근
#> # ℹ 243 more rows
#> # ℹ Use `print(n = ...)` to see more rows
```
…
# HTML 표 --> 데이터프레임 변환
winner_html <- remdrv_client$findElement("css", "#table01")$getElementAttribute("outerHTML")[[1]]

winner_table <- read_html(winner_html) %>%
  html_table(fill = TRUE) %>%
  .[[1]] 

remdrv_client$close()

winner_table |> 
  select(-직업, -학력, -경력)

#> # A tibble: 49 × 6
#>    선거구명     정당명       `성명(한자)`   성별  `생년월일(연령)` `득표수(득표율)`
#>    <chr>        <chr>        <chr>          <chr> <chr>            <chr>           
#>  1 종로구       더불어민주당 이낙연(李洛淵) 남    1952.12.20(67세) 54,902(58.38)   
#>  2 중구성동구갑 더불어민주당 홍익표(洪翼杓) 남    1967.11.20(52세) 70,387(54.25)   
#>  3 중구성동구을 더불어민주당 박성준(朴省俊) 남    1969.04.23(50세) 64,071(51.96)   
#>  4 용산구       미래통합당   권영세(權寧世) 남    1959.02.24(61세) 63,891(47.80)   
#>  5 광진구갑     더불어민주당 전혜숙(全惠淑) 여    1955.05.05(64세) 56,608(53.68)   
#>  6 광진구을     더불어민주당 고민정(高旼廷) 여    1979.08.23(40세) 54,210(50.37)   
#>  7 동대문구갑   더불어민주당 안규백(安圭伯) 남    1961.04.29(58세) 51,551(52.72)   
#>  8 동대문구을   더불어민주당 장경태(張耿態) 남    1983.10.12(36세) 55,230(54.54)   
#>  9 중랑구갑     더불어민주당 서영교(徐瑛敎) 여    1964.11.11(55세) 55,185(57.76)   
#> 10 중랑구을     더불어민주당 박홍근(朴洪根) 남    1969.10.08(50세) 74,131(59.28)   
#> # ℹ 39 more rows
#> # ℹ Use `print(n = ...)` to see more rows
```
…
