챗GPT 데이터 과학 - 25 파일 데이터
…
                        col_names = c("정류소명", "정류소_id", "승차건수_총합계", 
                                     "하차건수_총합계","승차건수_카드", "하차건수_카드",
                                     "승차건수_현금", "일평균_승하차건수"),
                       col_types = cols(
                         정류소명 = col_character(),
                         정류소_id = col_double(),
                         승차건수_총합계 = col_double(),
                         하차건수_총합계 = col_double(),
                         승차건수_카드 = col_double(),
                         하차건수_카드 = col_double(),
                         승차건수_현금 = col_double(),
                         일평균_승하차건수 = col_double()
                       ))  
incheon_bus
#> # A tibble: 6,386 × 8
#>    정류소명             정류소_id 승차건수_총합계 하차건수_총합계 승차건수_카드
#>    <chr>                    <dbl>           <dbl>           <dbl>         <dbl>
#>  1 (구)국제여객터미널       35051              95            1923            21
#>  2 (구)국제여객터미널          NA            2512              43          2465
#>  3 (주)경동세라믹스         89146             341              26           335
#>  4 (주)경인양행앞           42096             945             923           938
#>  5 (주)경인양행앞           42097            1322            3536          1294
#>  6 (주)대한특수금속         39050            1243              89          1238
#>  7 (주)두남                 39135             147              29           147
#>  8 (주)세모입구(린나이…     37585            1410            1517          1404
#>  9 (주)세모입구(린나이…     40893             307             556           304
#> 10 (주)스킨이데아           89388             147             148           147
#> # ℹ 6,376 more rows
#> # ℹ 3 more variables: 하차건수_카드 <dbl>, 승차건수_현금 <dbl>,
#> #   일평균_승하차건수 <dbl>
…
