챗GPT 데이터 과학 - 27 상용 데이터
…
## 인구통계학적 변수로 구성된 데이터셋
welfare_raw %>%
  select(all_of(demo_vars)) |> 
    set_names(str_split("성별|종교|(태어난 연도)|혼인상태|가구원수", "\\|")[[1]] |> dput()) |> 
    janitor::clean_names(ascii = FALSE)
#> c("성별", "종교", "(태어난 연도)", "혼인상태", "가구원수"
#> )
#> # A tibble: 16,591 × 5
#>     성별  종교 태어난_연도 혼인상태 가구원수
#>    <dbl> <dbl>       <dbl>    <dbl>    <dbl>
#>  1     1     2        1945        2        1
#>  2     1     1        1948        2        2
#>  3     1     1        1942        3        1
#>  4     5     1        1962        1        1
#>  5     5     2        1963        1        1
#>  6     5     2        2003        5        1
#>  7     5     1        1927        1        1
#>  8     5     2        1934        1        1
#>  9     1     2        1940        2        1
#> 10     2     2        1970        3        1
#> # ℹ 16,581 more rows
…
## 인구통계학적 변수로 구성된 데이터셋
sas_raw %>%
  select(all_of(sas_vars)) |>
  set_names(str_split("성별|종교|(태어난 연도)|혼인상태|가구원수", "\\|")[[1]] |> dput()) |>
  janitor::clean_names(ascii = FALSE)
#> c("성별", "종교", "(태어난 연도)", "혼인상태", "가구원수"
#> )
#> # A tibble: 16,591 × 5
#>     성별  종교 태어난_연도 혼인상태 가구원수
#>    <dbl> <dbl>       <dbl>    <dbl>    <dbl>
#>  1     1     2        1945        2        1
#>  2     1     1        1948        2        2
#>  3     1     1        1942        3        1
#>  4     5     1        1962        1        1
#>  5     5     2        1963        1        1
#>  6     5     2        2003        5        1
#>  7     5     1        1927        1        1
#>  8     5     2        1934        1        1
#>  9     1     2        1940        2        1
#> 10     2     2        1970        3        1
#> # ℹ 16,581 more rows
…
## 인구통계학적 변수로 구성된 데이터셋
stata_raw %>%
  select(all_of(stata_vars)) |>
  set_names(str_split("성별|종교|(태어난 연도)|혼인상태|가구원수", "\\|")[[1]] |> dput()) |>
  janitor::clean_names(ascii = FALSE)
#> c("성별", "종교", "(태어난 연도)", "혼인상태", "가구원수"
#> )
#> # A tibble: 16,591 × 5
#>     성별  종교 태어난_연도 혼인상태 가구원수
#>    <dbl> <dbl>       <dbl>    <dbl>    <dbl>
#>  1     1     2        1945        2        1
#>  2     1     1        1948        2        2
#>  3     1     1        1942        3        1
#>  4     5     1        1962        1        1
#>  5     5     2        1963        1        1
#>  6     5     2        2003        5        1
#>  7     5     1        1927        1        1
#>  8     5     2        1934        1        1
#>  9     1     2        1940        2        1
#> 10     2     2        1970        3        1
#> # ℹ 16,581 more rows
…
