2 데이터 과학 큰 그림 – 챗GPT 데이터 과학
…
library(tidyverse)
library(readxl)

death_raw <- read_excel("data/datos_florence.xlsx", sheet = "Sheet1", skip = 1)

death_tbl <- death_raw |> 
  janitor::clean_names() |> 
  set_names(c("Month", "Army", "Disease", "Wounds", "Other", "Disease.rate", "Wounds.rate", "Other.rate")) |> 
  mutate(Date = lubridate::my(Month)) |> 
  separate(Month, into = c("Month", "Year"), sep = " |_") |> 
  select(Date, Month, Year, everything()) 

death_tbl
#> # A tibble: 24 × 10
#>    Date       Month Year   Army Disease Wounds Other Disease.rate Wounds.rate
#>    <date>     <chr> <chr> <dbl>   <dbl>  <dbl> <dbl>        <dbl>       <dbl>
#>  1 1854-04-01 Apr   1854   8571       1      0     5          1.4         0  
#>  2 1854-05-01 May   1854  23333      12      0     9          6.2         0  
#>  3 1854-06-01 Jun   1854  28333      11      0     6          4.7         0  
#>  4 1854-07-01 Jul   1854  28722     359      0    23        150           0  
#>  5 1854-08-01 Aug   1854  30246     828      1    30        328.          0.4
#>  6 1854-09-01 Sep   1854  30290     788     81    70        312.         32.1
#>  7 1854-10-01 Oct   1854  30643     503    132   128        197          51.7
#>  8 1854-11-01 Nov   1854  29736     844    287   106        341.        116. 
#>  9 1854-12-01 Dec   1854  32779    1725    114   131        632.         41.7
#> 10 1855-01-01 Jan   1855  32393    2761     83   324       1023.         30.7
#> # ℹ 14 more rows
#> # ℹ 1 more variable: Other.rate <dbl>

HistDate 패키지에 동일한 데이터셋이 잘 정제되어 있어 이를 바로 활용해도 좋다.

library(HistData)

HistData::Nightingale |> 
  as_tibble()
#> # A tibble: 24 × 10
#>    Date       Month  Year  Army Disease Wounds Other Disease.rate Wounds.rate
#>    <date>     <ord> <int> <int>   <int>  <int> <int>        <dbl>       <dbl>
#>  1 1854-04-01 Apr    1854  8571       1      0     5          1.4         0  
#>  2 1854-05-01 May    1854 23333      12      0     9          6.2         0  
#>  3 1854-06-01 Jun    1854 28333      11      0     6          4.7         0  
#>  4 1854-07-01 Jul    1854 28722     359      0    23        150           0  
#>  5 1854-08-01 Aug    1854 30246     828      1    30        328.          0.4
#>  6 1854-09-01 Sep    1854 30290     788     81    70        312.         32.1
#>  7 1854-10-01 Oct    1854 30643     503    132   128        197          51.7
#>  8 1854-11-01 Nov    1854 29736     844    287   106        341.        116. 
#>  9 1854-12-01 Dec    1854 32779    1725    114   131        632.         41.7
#> 10 1855-01-01 Jan    1855 32393    2761     83   324       1023.         30.7
#> # ℹ 14 more rows
#> # ℹ 1 more variable: Other.rate <dbl>
…
death_viz <- death_tbl %>% 
  select(Date, Disease.rate, Wounds.rate, Other.rate) %>% 
  pivot_longer(-Date, names_to = "사망원인", values_to = "사망자수") |> 
  mutate(사망원인 = str_replace_all(사망원인, "\\.rate", ""), 
         체제 = ifelse(Date <= as.Date("1855-03-01"), "조치이전", "조치이후")) %>% 
  mutate(체제 = factor(체제, levels = c("조치이전", "조치이후"))) %>%  
  mutate(해당월 = month(Date, label = TRUE, abbr = TRUE)) |> 
  mutate(사망원인 = case_when(사망원인 == "Disease" ~ "질병",
                              사망원인 == "Wounds" ~ "부상",
                              사망원인 == "Other" ~ "기타")) |> 
  mutate(사망원인 = factor(사망원인, levels = c("질병", "부상", "기타")))

death_viz
#> # A tibble: 72 × 5
#>    Date       사망원인 사망자수 체제     해당월
#>    <date>     <fct>       <dbl> <fct>    <ord> 
#>  1 1854-04-01 질병          1.4 조치이전 " 4"  
#>  2 1854-04-01 부상          0   조치이전 " 4"  
#>  3 1854-04-01 기타          7   조치이전 " 4"  
#>  4 1854-05-01 질병          6.2 조치이전 " 5"  
#>  5 1854-05-01 부상          0   조치이전 " 5"  
#>  6 1854-05-01 기타          4.6 조치이전 " 5"  
#>  7 1854-06-01 질병          4.7 조치이전 " 6"  
#>  8 1854-06-01 부상          0   조치이전 " 6"  
#>  9 1854-06-01 기타          2.5 조치이전 " 6"  
#> 10 1854-07-01 질병        150   조치이전 " 7"  
#> # ℹ 62 more rows
…
