챗GPT 데이터 과학 - 15 사례: 시군구 소멸
…
kor_tbl
#> # A tibble: 4,248 × 4
#>    시도명     시군구  연도 인구수
#>    <chr>      <chr>  <dbl>  <dbl>
#>  1 서울특별시 종로구  2005 169315
#>  2 서울특별시 종로구  2006 166793
#>  3 서울특별시 종로구  2007 165846
#>  4 서울특별시 종로구  2008 170705
#>  5 서울특별시 종로구  2009 168603
#>  6 서울특별시 종로구  2010 170578
#>  7 서울특별시 종로구  2011 168382
#>  8 서울특별시 종로구  2012 165207
#>  9 서울특별시 종로구  2013 160070
#> 10 서울특별시 종로구  2014 156993
#> # ℹ 4,238 more rows
…
kor_sigun_mod |> 
  select(시도명, 시군구, 결정계수, 회귀계수) |> 
  arrange(desc(결정계수))
#> # A tibble: 236 × 4
#>    시도명     시군구 결정계수 회귀계수
#>    <chr>      <chr>     <dbl>    <dbl>
#>  1 부산광역시 영도구    0.999   -3223.
#>  2 강원도     원주시    0.994    4163.
#>  3 경상북도   경주시    0.993   -1401.
#>  4 전라남도   보성군    0.991    -807.
#>  5 경기도     양평군    0.989    2359.
#>  6 충청북도   옥천군    0.987    -326.
#>  7 전라남도   화순군    0.987    -681.
#>  8 부산광역시 사상구    0.986   -4125.
#>  9 충청남도   부여군    0.986   -1001.
#> 10 충청남도   천안시    0.986    9472.
#> # ℹ 226 more rows
…
