챗GPT 데이터 과학 - 14 많은 회귀모형
…
gapminder 데이터를 가지고 회귀모형을 구축하고 모형을 활용하여 종속변수(기대수명, lifeExp)가 늘어나지 못한 국가를 뽑아내고 이를 시각적으로 확인해보자.

# 0. 환경설정 -----
# 데이터
library(gapminder)

# Tidyverse
library(tidyverse)

# 모형
library(broom)

# 1. 데이터 -----
gapminder
#> # A tibble: 1,704 × 6
#>    country     continent  year lifeExp      pop gdpPercap
#>    <fct>       <fct>     <int>   <dbl>    <int>     <dbl>
#>  1 Afghanistan Asia       1952    28.8  8425333      779.
#>  2 Afghanistan Asia       1957    30.3  9240934      821.
#>  3 Afghanistan Asia       1962    32.0 10267083      853.
#>  4 Afghanistan Asia       1967    34.0 11537966      836.
#>  5 Afghanistan Asia       1972    36.1 13079460      740.
#>  6 Afghanistan Asia       1977    38.4 14880372      786.
#>  7 Afghanistan Asia       1982    39.9 12881816      978.
#>  8 Afghanistan Asia       1987    40.8 13867957      852.
#>  9 Afghanistan Asia       1992    41.7 16317921      649.
#> 10 Afghanistan Asia       1997    41.8 22227415      635.
#> # ℹ 1,694 more rows
…
# 2. 모형 -----
country_model <- function(df)
  lm(lifeExp ~ year, data=df)

by_country <- gapminder %>% 
  group_by(country, continent) %>% 
  nest() %>% 
  mutate(model = map(data, country_model),
         model_glance = map(model, glance),
         rsquare = map_dbl(model_glance, ~.$r.squared)) |> 
  ungroup()

by_country %>% 
  arrange(rsquare)
#> # A tibble: 142 × 6
#>    country          continent data              model  model_glance      rsquare
#>    <fct>            <fct>     <list>            <list> <list>              <dbl>
#>  1 Rwanda           Africa    <tibble [12 × 4]> <lm>   <tibble [1 × 12]>  0.0172
#>  2 Botswana         Africa    <tibble [12 × 4]> <lm>   <tibble [1 × 12]>  0.0340
#>  3 Zimbabwe         Africa    <tibble [12 × 4]> <lm>   <tibble [1 × 12]>  0.0562
#>  4 Zambia           Africa    <tibble [12 × 4]> <lm>   <tibble [1 × 12]>  0.0598
#>  5 Swaziland        Africa    <tibble [12 × 4]> <lm>   <tibble [1 × 12]>  0.0682
#>  6 Lesotho          Africa    <tibble [12 × 4]> <lm>   <tibble [1 × 12]>  0.0849
#>  7 Cote d'Ivoire    Africa    <tibble [12 × 4]> <lm>   <tibble [1 × 12]>  0.283 
#>  8 South Africa     Africa    <tibble [12 × 4]> <lm>   <tibble [1 × 12]>  0.312 
#>  9 Uganda           Africa    <tibble [12 × 4]> <lm>   <tibble [1 × 12]>  0.342 
#> 10 Congo, Dem. Rep. Africa    <tibble [12 × 4]> <lm>   <tibble [1 × 12]>  0.348 
#> # ℹ 132 more rows
…
cv_tbl <- list(test_training = list(valid_tbl), 
               model_name = model_tbl$model_name)  
  
cv_tbl <- tidyr::expand_grid(test_training = list(valid_tbl), 
                             model_name = model_tbl$model_name)

cv_tbl <- cv_tbl %>%
  mutate(model_number = row_number()) %>%  # Manually creating the model_number column
  left_join(model_tbl %>% select(model_name, reg_formula), by = "model_name") %>% 
  unnest(cols = c(test_training))

cv_tbl
#> # A tibble: 60 × 5
#>    splits             id     model_name model_number reg_formula 
#>    <list>             <chr>  <chr>             <int> <named list>
#>  1 <split [1533/171]> Fold01 06_full               1 <formula>   
#>  2 <split [1533/171]> Fold02 06_full               1 <formula>   
#>  3 <split [1533/171]> Fold03 06_full               1 <formula>   
#>  4 <split [1533/171]> Fold04 06_full               1 <formula>   
#>  5 <split [1534/170]> Fold05 06_full               1 <formula>   
#>  6 <split [1534/170]> Fold06 06_full               1 <formula>   
#>  7 <split [1534/170]> Fold07 06_full               1 <formula>   
#>  8 <split [1534/170]> Fold08 06_full               1 <formula>   
#>  9 <split [1534/170]> Fold09 06_full               1 <formula>   
#> 10 <split [1534/170]> Fold10 06_full               1 <formula>   
#> # ℹ 50 more rows

## 교차검정 analysis, assessment -----
cv_fit_tbl <- cv_tbl %>%
  mutate(fit = map2(reg_formula, splits, ~lm(.x, data = rsample::analysis(.y)))) %>%
  mutate(RMSE = map2_dbl(fit, splits, ~modelr::rmse(.x, rsample::assessment(.y))))

cv_fit_tbl
#> # A tibble: 60 × 7
#>    splits             id     model_name model_number reg_formula  fit       RMSE
#>    <list>             <chr>  <chr>             <int> <named list> <named > <dbl>
#>  1 <split [1533/171]> Fold01 06_full               1 <formula>    <lm>      2.01
#>  2 <split [1533/171]> Fold02 06_full               1 <formula>    <lm>      2.28
#>  3 <split [1533/171]> Fold03 06_full               1 <formula>    <lm>      2.19
#>  4 <split [1533/171]> Fold04 06_full               1 <formula>    <lm>      3.20
#>  5 <split [1534/170]> Fold05 06_full               1 <formula>    <lm>      2.27
#>  6 <split [1534/170]> Fold06 06_full               1 <formula>    <lm>      2.29
#>  7 <split [1534/170]> Fold07 06_full               1 <formula>    <lm>      2.64
#>  8 <split [1534/170]> Fold08 06_full               1 <formula>    <lm>      2.86
#>  9 <split [1534/170]> Fold09 06_full               1 <formula>    <lm>      2.70
#> 10 <split [1534/170]> Fold10 06_full               1 <formula>    <lm>      2.18
#> # ℹ 50 more rows
…
